
44f1e20edafb61bae2cbc459cfe421e5d837ea2349e712b54103b13b38ebb87b-kubectl-1.22.1-0.x86_64.rpm
4d300a7655f56307d35f127d99dc192b6aa4997f322234e754f16aaa60fd8906-cri-tools-1.23.0-0.x86_64.rpm
85f74ea1d2a4966b78abec7a9bdc8733d15c42ba2846be798de2229fec82d375-kubeadm-1.22.1-0.x86_64.rpm
alsa-lib-1.1.8-1.el7.x86_64.rpm
audit-libs-python-2.8.5-4.el7.x86_64.rpm
augeas-libs-1.4.0-10.el7.x86_64.rpm
autoconf-2.69-11.el7.noarch.rpm
autogen-libopts-5.18-5.el7.x86_64.rpm
automake-1.13.4-3.el7.noarch.rpm
avahi-libs-0.6.31-20.el7.x86_64.rpm
bash-completion-2.1-8.el7.noarch.rpm
boost-iostreams-1.53.0-28.el7.x86_64.rpm
boost-random-1.53.0-28.el7.x86_64.rpm
boost-system-1.53.0-28.el7.x86_64.rpm
boost-thread-1.53.0-28.el7.x86_64.rpm
bridge-utils-1.5-9.el7.x86_64.rpm
bzip2-1.0.6-13.el7.x86_64.rpm
bzip2-devel-1.0.6-13.el7.x86_64.rpm
celt051-0.5.1.3-8.el7.x86_64.rpm
checkpolicy-2.5-8.el7.x86_64.rpm
conntrack-tools-1.4.4-7.el7.x86_64.rpm
containerd.io-1.5.11-3.1.el7.x86_64.rpm
container-selinux-2.119.2-1.911c772.el7_8.noarch.rpm
cpp-4.8.5-44.el7.x86_64.rpm
createrepo-0.9.9-28.el7.noarch.rpm
cyrus-sasl-2.1.26-24.el7_9.x86_64.rpm
cyrus-sasl-gssapi-2.1.26-24.el7_9.x86_64.rpm
cyrus-sasl-lib-2.1.26-24.el7_9.x86_64.rpm
d28d0aca2d81f55ad346f0bffb166b8a5ddb9c9590ee7227ab4b1788bffe1613-kubelet-1.22.1-0.x86_64.rpm
db7cb5cb0b3f6875f54d10f02e625573988e3e91fd4fc5eef0b1876bb18604ad-kubernetes-cni-0.8.7-0.x86_64.rpm
dejavu-fonts-common-2.33-6.el7.noarch.rpm
dejavu-sans-fonts-2.33-6.el7.noarch.rpm
deltarpm-3.6-3.el7.x86_64.rpm
device-mapper-1.02.170-6.el7_9.5.x86_64.rpm
device-mapper-event-1.02.170-6.el7_9.5.x86_64.rpm
device-mapper-event-libs-1.02.170-6.el7_9.5.x86_64.rpm
device-mapper-libs-1.02.170-6.el7_9.5.x86_64.rpm
device-mapper-persistent-data-0.8.5-3.el7_9.2.x86_64.rpm
dnsmasq-2.76-17.el7_9.3.x86_64.rpm
docker-ce-20.10.8-3.el7.x86_64.rpm
docker-ce-cli-20.10.14-3.el7.x86_64.rpm
docker-ce-rootless-extras-20.10.14-3.el7.x86_64.rpm
docker-scan-plugin-0.17.0-3.el7.x86_64.rpm
ebtables-2.0.10-16.el7.x86_64.rpm
epel-release-7-14.noarch.rpm
expat-2.1.0-14.el7_9.x86_64.rpm
expat-devel-2.1.0-14.el7_9.x86_64.rpm
expect-5.45-14.el7_1.x86_64.rpm
flac-libs-1.3.0-5.el7_1.x86_64.rpm
fontconfig-2.13.0-4.3.el7.x86_64.rpm
fontconfig-devel-2.13.0-4.3.el7.x86_64.rpm
fontpackages-filesystem-1.44-8.el7.noarch.rpm
freetype-2.8-14.el7_9.1.x86_64.rpm
freetype-devel-2.8-14.el7_9.1.x86_64.rpm
fuse3-libs-3.6.1-4.el7.x86_64.rpm
fuse-libs-2.9.2-11.el7.x86_64.rpm
fuse-overlayfs-0.7.2-6.el7_8.x86_64.rpm
gcc-4.8.5-44.el7.x86_64.rpm
gcc-c++-4.8.5-44.el7.x86_64.rpm
gdbm-devel-1.10-8.el7.x86_64.rpm
genisoimage-1.1.11-25.el7.x86_64.rpm
git-1.8.3.1-23.el7_8.x86_64.rpm
glibc-2.17-325.el7_9.x86_64.rpm
glibc-common-2.17-325.el7_9.x86_64.rpm
glibc-devel-2.17-325.el7_9.x86_64.rpm
glibc-headers-2.17-325.el7_9.x86_64.rpm
glusterfs-6.0-49.1.el7.x86_64.rpm
glusterfs-api-6.0-49.1.el7.x86_64.rpm
glusterfs-cli-6.0-49.1.el7.x86_64.rpm
glusterfs-client-xlators-6.0-49.1.el7.x86_64.rpm
glusterfs-libs-6.0-49.1.el7.x86_64.rpm
gnutls-3.3.29-9.el7_6.x86_64.rpm
gnutls-dane-3.3.29-9.el7_6.x86_64.rpm
gnutls-utils-3.3.29-9.el7_6.x86_64.rpm
gperftools-libs-2.6.1-1.el7.x86_64.rpm
gpm-libs-1.20.7-6.el7.x86_64.rpm
gsm-1.0.13-11.el7.x86_64.rpm
gssproxy-0.7.0-30.el7_9.x86_64.rpm
ipvsadm-1.27-8.el7.x86_64.rpm
ipxe-roms-qemu-20180825-3.git133f4c.el7.noarch.rpm
iscsi-initiator-utils-6.2.0.874-22.el7_9.x86_64.rpm
iscsi-initiator-utils-iscsiuio-6.2.0.874-22.el7_9.x86_64.rpm
jq-1.6-2.el7.x86_64.rpm
kernel-headers-3.10.0-1160.59.1.el7.x86_64.rpm
keyutils-1.5.8-3.el7.x86_64.rpm
keyutils-libs-devel-1.5.8-3.el7.x86_64.rpm
krb5-devel-1.15.1-51.el7_9.x86_64.rpm
krb5-libs-1.15.1-51.el7_9.x86_64.rpm
libaio-0.3.109-13.el7.x86_64.rpm
libarchive-3.1.2-14.el7_7.x86_64.rpm
libasyncns-0.8-7.el7.x86_64.rpm
libbasicobjects-0.1.1-32.el7.x86_64.rpm
libblkid-2.23.2-65.el7_9.1.x86_64.rpm
libcgroup-0.41-21.el7.x86_64.rpm
libcollection-0.7.0-32.el7.x86_64.rpm
libcom_err-devel-1.42.9-19.el7.x86_64.rpm
libdb4-4.8.30-13.el7.x86_64.rpm
libdb4-devel-4.8.30-13.el7.x86_64.rpm
libevent-2.0.21-4.el7.x86_64.rpm
libffi-devel-3.0.13-19.el7.x86_64.rpm
libibverbs-22.4-6.el7_9.x86_64.rpm
libICE-1.0.9-9.el7.x86_64.rpm
libini_config-1.3.1-32.el7.x86_64.rpm
libiscsi-1.9.0-7.el7.x86_64.rpm
libjpeg-turbo-1.2.90-8.el7.x86_64.rpm
libkadm5-1.15.1-51.el7_9.x86_64.rpm
libmount-2.23.2-65.el7_9.1.x86_64.rpm
libmpc-1.0.1-3.el7.x86_64.rpm
libnetfilter_cthelper-1.0.0-11.el7.x86_64.rpm
libnetfilter_cttimeout-1.0.0-7.el7.x86_64.rpm
libnetfilter_queue-1.0.2-2.el7_2.x86_64.rpm
libnfsidmap-0.25-19.el7.x86_64.rpm
libogg-1.3.0-7.el7.x86_64.rpm
libosinfo-1.1.0-5.el7.x86_64.rpm
libpath_utils-0.2.1-32.el7.x86_64.rpm
libpcap-1.5.3-12.el7.x86_64.rpm
libpcap-devel-1.5.3-12.el7.x86_64.rpm
libpciaccess-0.14-1.el7.x86_64.rpm
libpng-devel-1.5.13-8.el7.x86_64.rpm
librados2-10.2.5-4.el7.x86_64.rpm
librbd1-10.2.5-4.el7.x86_64.rpm
librdmacm-22.4-6.el7_9.x86_64.rpm
libref_array-0.1.5-32.el7.x86_64.rpm
libselinux-devel-2.5-15.el7.x86_64.rpm
libsemanage-python-2.5-14.el7.x86_64.rpm
libsepol-devel-2.5-10.el7.x86_64.rpm
libSM-1.2.2-2.el7.x86_64.rpm
libsmartcols-2.23.2-65.el7_9.1.x86_64.rpm
libsndfile-1.0.25-12.el7_9.1.x86_64.rpm
libstdc++-devel-4.8.5-44.el7.x86_64.rpm
libtirpc-0.2.4-0.16.el7.x86_64.rpm
libtool-2.4.2-22.el7_3.x86_64.rpm
libtool-ltdl-2.4.2-22.el7_3.x86_64.rpm
libusal-1.1.11-25.el7.x86_64.rpm
libusbx-1.0.21-1.el7.x86_64.rpm
libuuid-2.23.2-65.el7_9.1.x86_64.rpm
libuuid-devel-2.23.2-65.el7_9.1.x86_64.rpm
libverto-devel-0.2.5-4.el7.x86_64.rpm
libverto-libevent-0.2.5-4.el7.x86_64.rpm
libvirt-4.5.0-36.el7_9.5.x86_64.rpm
libvirt-bash-completion-4.5.0-36.el7_9.5.x86_64.rpm
libvirt-client-4.5.0-36.el7_9.5.x86_64.rpm
libvirt-daemon-4.5.0-36.el7_9.5.x86_64.rpm
libvirt-daemon-config-network-4.5.0-36.el7_9.5.x86_64.rpm
libvirt-daemon-config-nwfilter-4.5.0-36.el7_9.5.x86_64.rpm
libvirt-daemon-driver-interface-4.5.0-36.el7_9.5.x86_64.rpm
libvirt-daemon-driver-lxc-4.5.0-36.el7_9.5.x86_64.rpm
libvirt-daemon-driver-network-4.5.0-36.el7_9.5.x86_64.rpm
libvirt-daemon-driver-nodedev-4.5.0-36.el7_9.5.x86_64.rpm
libvirt-daemon-driver-nwfilter-4.5.0-36.el7_9.5.x86_64.rpm
libvirt-daemon-driver-qemu-4.5.0-36.el7_9.5.x86_64.rpm
libvirt-daemon-driver-secret-4.5.0-36.el7_9.5.x86_64.rpm
libvirt-daemon-driver-storage-4.5.0-36.el7_9.5.x86_64.rpm
libvirt-daemon-driver-storage-core-4.5.0-36.el7_9.5.x86_64.rpm
libvirt-daemon-driver-storage-disk-4.5.0-36.el7_9.5.x86_64.rpm
libvirt-daemon-driver-storage-gluster-4.5.0-36.el7_9.5.x86_64.rpm
libvirt-daemon-driver-storage-iscsi-4.5.0-36.el7_9.5.x86_64.rpm
libvirt-daemon-driver-storage-logical-4.5.0-36.el7_9.5.x86_64.rpm
libvirt-daemon-driver-storage-mpath-4.5.0-36.el7_9.5.x86_64.rpm
libvirt-daemon-driver-storage-rbd-4.5.0-36.el7_9.5.x86_64.rpm
libvirt-daemon-driver-storage-scsi-4.5.0-36.el7_9.5.x86_64.rpm
libvirt-libs-4.5.0-36.el7_9.5.x86_64.rpm
libvirt-python-4.5.0-1.el7.x86_64.rpm
libvorbis-1.3.3-8.el7.1.x86_64.rpm
libX11-1.6.7-4.el7_9.x86_64.rpm
libX11-common-1.6.7-4.el7_9.noarch.rpm
libX11-devel-1.6.7-4.el7_9.x86_64.rpm
libXau-1.0.8-2.1.el7.x86_64.rpm
libXau-devel-1.0.8-2.1.el7.x86_64.rpm
libxcb-1.13-1.el7.x86_64.rpm
libxcb-devel-1.13-1.el7.x86_64.rpm
libXext-1.3.3-3.el7.x86_64.rpm
libXft-2.3.2-2.el7.x86_64.rpm
libXft-devel-2.3.2-2.el7.x86_64.rpm
libXi-1.7.9-1.el7.x86_64.rpm
libxml2-2.9.1-6.el7_9.6.x86_64.rpm
libxml2-python-2.9.1-6.el7_9.6.x86_64.rpm
libXrender-0.9.10-1.el7.x86_64.rpm
libXrender-devel-0.9.10-1.el7.x86_64.rpm
libxslt-1.1.28-6.el7.x86_64.rpm
libXtst-1.2.3-1.el7.x86_64.rpm
libyaml-0.1.4-11.el7_0.x86_64.rpm
lm_sensors-libs-3.4.0-8.20160601gitf9185e5.el7.x86_64.rpm
lrzsz-0.12.20-36.el7.x86_64.rpm
lsof-4.87-6.el7.x86_64.rpm
lvm2-2.02.187-6.el7_9.5.x86_64.rpm
lvm2-libs-2.02.187-6.el7_9.5.x86_64.rpm
lzop-1.03-10.el7.x86_64.rpm
m4-1.4.16-10.el7.x86_64.rpm
mpfr-3.1.1-4.el7.x86_64.rpm
ncurses-devel-5.9-14.20130511.el7_4.x86_64.rpm
netcf-libs-0.2.8-4.el7.x86_64.rpm
nettle-2.7.1-9.el7_9.x86_64.rpm
net-tools-2.0-0.25.20131004git.el7.x86_64.rpm
nfs-utils-1.3.0-0.68.el7.2.x86_64.rpm
nmap-ncat-6.40-19.el7.x86_64.rpm
ntp-4.2.6p5-29.el7.centos.2.x86_64.rpm
ntpdate-4.2.6p5-29.el7.centos.2.x86_64.rpm
numad-0.5-18.20150602git.el7.x86_64.rpm
oniguruma-6.8.2-1.el7.x86_64.rpm
openssl-1.0.2k-25.el7_9.x86_64.rpm
openssl-devel-1.0.2k-25.el7_9.x86_64.rpm
openssl-libs-1.0.2k-25.el7_9.x86_64.rpm
opus-1.0.2-6.el7.x86_64.rpm
osinfo-db-20200529-1.el7.noarch.rpm
osinfo-db-tools-1.1.0-1.el7.x86_64.rpm
patch-2.7.1-12.el7_7.x86_64.rpm
pciutils-3.5.1-3.el7.x86_64.rpm
pcre-devel-8.32-17.el7.x86_64.rpm
perl-5.16.3-299.el7_9.x86_64.rpm
perl-Carp-1.26-244.el7.noarch.rpm
perl-constant-1.27-2.el7.noarch.rpm
perl-Data-Dumper-2.145-3.el7.x86_64.rpm
perl-Encode-2.51-7.el7.x86_64.rpm
perl-Error-0.17020-2.el7.noarch.rpm
perl-Exporter-5.68-3.el7.noarch.rpm
perl-File-Path-2.09-2.el7.noarch.rpm
perl-File-Temp-0.23.01-3.el7.noarch.rpm
perl-Filter-1.49-3.el7.x86_64.rpm
perl-Getopt-Long-2.40-3.el7.noarch.rpm
perl-Git-1.8.3.1-23.el7_8.noarch.rpm
perl-HTTP-Tiny-0.033-3.el7.noarch.rpm
perl-libs-5.16.3-299.el7_9.x86_64.rpm
perl-macros-5.16.3-299.el7_9.x86_64.rpm
perl-parent-0.225-244.el7.noarch.rpm
perl-PathTools-3.40-5.el7.x86_64.rpm
perl-Pod-Escapes-1.04-299.el7_9.noarch.rpm
perl-podlators-2.5.1-3.el7.noarch.rpm
perl-Pod-Perldoc-3.20-4.el7.noarch.rpm
perl-Pod-Simple-3.28-4.el7.noarch.rpm
perl-Pod-Usage-1.63-3.el7.noarch.rpm
perl-Scalar-List-Utils-1.27-248.el7.x86_64.rpm
perl-Socket-2.010-5.el7.x86_64.rpm
perl-Storable-2.45-3.el7.x86_64.rpm
perl-TermReadKey-2.30-20.el7.x86_64.rpm
perl-Test-Harness-3.28-3.el7.noarch.rpm
perl-Text-ParseWords-3.29-4.el7.noarch.rpm
perl-Thread-Queue-3.02-2.el7.noarch.rpm
perl-threads-1.87-4.el7.x86_64.rpm
perl-threads-shared-1.43-6.el7.x86_64.rpm
perl-Time-HiRes-1.9725-3.el7.x86_64.rpm
perl-Time-Local-1.2300-2.el7.noarch.rpm
pixman-0.34.0-1.el7.x86_64.rpm
policycoreutils-python-2.5-34.el7.x86_64.rpm
psmisc-22.20-17.el7.x86_64.rpm
pulseaudio-libs-10.0-6.el7_9.x86_64.rpm
pwgen-2.08-1.el7.x86_64.rpm
python-2.7.5-90.el7.x86_64.rpm
python2-rpm-macros-3-34.el7.noarch.rpm
python-backports-1.0-8.el7.x86_64.rpm
python-backports-ssl_match_hostname-3.5.0.1-1.el7.noarch.rpm
python-chardet-2.2.1-3.el7.noarch.rpm
python-deltarpm-3.6-3.el7.x86_64.rpm
python-devel-2.7.5-90.el7.x86_64.rpm
python-ipaddr-2.1.11-2.el7.noarch.rpm
python-ipaddress-1.0.16-2.el7.noarch.rpm
python-IPy-0.75-6.el7.noarch.rpm
python-kitchen-1.1.1-5.el7.noarch.rpm
python-libs-2.7.5-90.el7.x86_64.rpm
python-requests-2.6.0-10.el7.noarch.rpm
python-rpm-macros-3-34.el7.noarch.rpm
python-six-1.9.0-2.el7.noarch.rpm
python-srpm-macros-3-34.el7.noarch.rpm
python-urllib3-1.10.2-7.el7.noarch.rpm
qemu-img-1.5.3-175.el7_9.5.x86_64.rpm
qemu-kvm-1.5.3-175.el7_9.5.x86_64.rpm
qemu-kvm-common-1.5.3-175.el7_9.5.x86_64.rpm
quota-4.01-19.el7.x86_64.rpm
quota-nls-4.01-19.el7.noarch.rpm
radvd-2.17-3.el7.x86_64.rpm
rdma-core-22.4-6.el7_9.x86_64.rpm
readline-devel-6.2-11.el7.x86_64.rpm
rpcbind-0.2.0-49.el7.x86_64.rpm
rsync-3.1.2-10.el7.x86_64.rpm
ruby-2.0.0.648-36.el7.x86_64.rpm
rubygem-bigdecimal-1.2.0-36.el7.x86_64.rpm
rubygem-io-console-0.4.2-36.el7.x86_64.rpm
rubygem-json-1.7.7-36.el7.x86_64.rpm
rubygem-psych-2.0.0-36.el7.x86_64.rpm
rubygem-rdoc-4.0.0-36.el7.noarch.rpm
rubygems-2.0.14.1-36.el7.noarch.rpm
ruby-irb-2.0.0.648-36.el7.noarch.rpm
ruby-libs-2.0.0.648-36.el7.x86_64.rpm
seabios-bin-1.11.0-2.el7.noarch.rpm
seavgabios-bin-1.11.0-2.el7.noarch.rpm
setools-libs-3.3.8-4.el7.x86_64.rpm
sgabios-bin-0.20110622svn-4.el7.noarch.rpm
shc-4.0.3-1.el7.x86_64.rpm
slirp4netns-0.4.3-4.el7_8.x86_64.rpm
socat-1.7.3.2-2.el7.x86_64.rpm
spice-server-0.14.0-9.el7_9.1.x86_64.rpm
sqlite-devel-3.7.17-8.el7_7.1.x86_64.rpm
sshpass-1.06-2.el7.x86_64.rpm
sysstat-10.1.5-19.el7.x86_64.rpm
tcl-8.5.13-8.el7.x86_64.rpm
tcl-devel-8.5.13-8.el7.x86_64.rpm
tcp_wrappers-7.6-77.el7.x86_64.rpm
tk-8.5.13-6.el7.x86_64.rpm
tk-devel-8.5.13-6.el7.x86_64.rpm
tree-1.6.0-10.el7.x86_64.rpm
trousers-0.3.14-2.el7.x86_64.rpm
unbound-libs-1.6.6-5.el7_8.x86_64.rpm
unzip-6.0-24.el7_9.x86_64.rpm
usbredir-0.7.1-3.el7.x86_64.rpm
util-linux-2.23.2-65.el7_9.1.x86_64.rpm
vim-common-7.4.629-8.el7_9.x86_64.rpm
vim-enhanced-7.4.629-8.el7_9.x86_64.rpm
vim-filesystem-7.4.629-8.el7_9.x86_64.rpm
virt-install-1.5.0-7.el7.noarch.rpm
virt-manager-common-1.5.0-7.el7.noarch.rpm
vsftpd-3.0.2-29.el7_9.x86_64.rpm
wget-1.14-18.el7_6.1.x86_64.rpm
xorg-x11-proto-devel-2018.4-1.el7.noarch.rpm
xz-devel-5.2.2-1.el7.x86_64.rpm
yajl-2.0.4-4.el7.x86_64.rpm
yum-utils-1.1.31-54.el7_8.noarch.rpm
zip-3.0-11.el7.x86_64.rpm
zlib-1.2.7-19.el7_9.x86_64.rpm
zlib-devel-1.2.7-19.el7_9.x86_64.rpm
zsh-5.0.2-34.el7_8.2.x86_64.rpm
